地点CODE	年	観測間隔	データ種別	備考
101	2010	従来観測	波浪データ(TEXT)	
101	2011	従来観測	波浪データ(TEXT)	
101	2012	従来観測	波浪データ(TEXT)	
101	2013	従来観測	波浪データ(TEXT)	
101	2014	従来観測	波浪データ(TEXT)	
101	2015	従来観測	波浪データ(TEXT)	
101	2016	従来観測	波浪データ(TEXT)	
101	2017	従来観測	波浪データ(TEXT)	
102	2010	従来観測	波浪データ(TEXT)	
102	2011	従来観測	波浪データ(TEXT)	
102	2012	従来観測	波浪データ(TEXT)	
102	2013	従来観測	波浪データ(TEXT)	
102	2014	従来観測	波浪データ(TEXT)	
102	2015	従来観測	波浪データ(TEXT)	
102	2016	従来観測	波浪データ(TEXT)	
102	2017	従来観測	波浪データ(TEXT)	
