【波浪台帳】
FORMAT(I4,3I2,2I6,4(F6.2,F6.1),I6)
        10        20        30        40        50        60        70        80
----+----+----+----+----+----+----+----+----+----+----+----+----+----+----+----+
604  留萌                
2001 1 1 0     0   166  0.94   7.1  1.42   9.8  1.69  10.1  1.95   9.3   114
2001 1 1 2     0   164  0.92   7.3  1.43   9.9  1.76  10.5  2.49   7.8   115
2001 1 1 4     0   154  0.92   7.7  1.50  10.7  1.89  11.1  2.25   8.8   113
2001 1 1 6     4  9999 99.99 999.9  0.78   8.3 99.99 999.9 99.99 999.9    95
2001 1 1 8     7   205  0.94   5.6  1.54   6.7  1.92   7.0  2.51   6.3  9999
2001 1 110    66  9999 99.99 999.9 66.66 666.6 99.99 999.9 99.99 999.9  9999
2001 1 112    77  9999 99.99 999.9  0.86 777.7 99.99 999.9  1.38 777.7  9999
2001 1 114    77  9999 99.99 999.9 77.77 777.7 99.99 999.9 99.99 999.9  9999 (*1)
2001 1 116  9999  9999 99.99 999.9 99.99 999.9 99.99 999.9 99.99 999.9  9999
2001 1 118     0   317  0.13   3.8  0.21   5.3  0.27   5.1  0.35   5.4  6666 (*2)
2001 1 120     0   455  0.22   2.6  0.33   3.1  0.41   3.0  0.56   2.3  9999
2001 1 122  9999  9999 99.99 999.9 99.99 999.9 99.99 999.9 99.99 999.9  9999
---+-+-+-+-----+-----+-----+-----+-----+-----+-----+-----+-----+-----+-----+
 I4  3I2 |  I6 |  I6 | F6.2  F6.1| F6.2  F6.1| F6.2  F6.1| F6.2  F6.1|  I6 |
 年月日時| ﾌﾗｸﾞ| 波数| 波高  周期| 波高  周期| 波高  周期| 波高  周期| 波向|
         |     | (波)|  (m) (sec)|  (m) (sec)|  (m) (sec)|  (m) (sec)| (度)|
         |     |     |   平均波  |   有義波  |   1/10波  |   最高波  |     |
---+-+-+-+-----+-----+-----+-----+-----+-----+-----+-----+-----+-----+-----+
備考：1) 港湾番号・地点名がファイルの最初の行に記載．
      2) １日分のデータは，０時～22時の２時間毎，12行で構成．
      3) フラグ:     0 = 正常データ
                     4 = 水圧補足データ（水圧波形データからの補足値で，有義波諸元
                         を記載）
                     7 = アナログ補足データ（アナログ記録から波浪諸元を補足したも
                         ので，波向を除く全諸元を記載）
                    66 = 静穏データ（1999年以前のデータにおいて，欠測として扱われ
                         ていたが，波形記録を見直すことにより，有義波高が0.25ｍ以
                         下であったことを表す）
                    77 = 高波でないデータ（1995年以降のデータで，アナログ記録の
                         最高波高（Hmax）から有義波高（H1/3）を H1/3＝Hmax／1.6 
                         より簡易的に算定したもので，有義波高と最高波高を記載）
                         (*1)1998年～1999年のデータで，有義波高が 77.77 の場合は
                             有義波高が地点別の基準値以下であること表している．
                  9999 = 欠測
      4) 波高  : 99.99 = 欠測
      5) 周期  : 999.9 = 欠測
      6) 波向  : 真北基準で時計周りの角度
                  6666 = 静穏（1999年以前で有義波高が0.25ｍ以下の場合）
                         (*2)2000年以降は，有義波高が0.25ｍ以下でも波向を記載して
                             いるが，有義波高が0.25ｍ以下の場合は，静穏として取り
                             扱って下さい．
                  9999 = 欠測